…
Below is a list of all the possible API actions.\\

#### For general API actions
- `search_datasets` to perform a search on dataverse
```R
# Find all the published dataset that contain the word climate in their title 
datasets = search_datasets(query="title:'climate'",
                           publication_status="RELEASED",
                           type="dataset",
                           dataverse="",
                           n_search=1000)
# that return
> datasets
# A tibble: 73 × 28
   name             type  url   dataset_DOI description published_at publisher
   <chr>            <chr> <chr> <chr>       <chr>       <chr>        <chr>    
 1 Plot Climate In… data… http… doi:10.154… "Climate d… 2020-11-03T… AMAP ECO…
 2 European climat… data… http… doi:10.154… "This data… 2022-09-21T… Landmark…
 3 Species plots: … data… http… doi:10.154… "The soil … 2020-11-25T… AMAP ECO…
 4 Data for “Inter… data… http… doi:10.577… "“Internat… 2022-10-26T… Experime…
 5 Tree NSC, RAP a… data… http… doi:10.154… "Data used… 2022-01-28T… AMAP     
 6 Soil and crop m… data… http… doi:10.577… "This work… 2022-07-27T… CLIMASOMA
 7 Climate effect … data… http… doi:10.577… "It holds … 2022-12-13T… URGI     
 8 Atmospheric cli… data… http… doi:10.154… "The datas… 2021-06-06T… AnaEE-Fr…
 9 Growth and annu… data… http… doi:10.154… "The prese… 2021-09-28T… Etude_Pr…
10 R script to gen… data… http… doi:10.577… "Ce dossie… 2023-02-13T… Data INR…
# ℹ 63 more rows
# ℹ 21 more variables: citationHtml <chr>, identifier_of_dataverse <chr>,
#   name_of_dataverse <chr>, citation <chr>, storageIdentifier <chr>,
#   subjects <list>, fileCount <int>, versionId <int>, versionState <chr>,
#   majorVersion <int>, minorVersion <int>, createdAt <chr>, updatedAt <chr>,
#   contacts <list>, authors <list>, keywords <list>, publications <list>,
#   producers <list>, geographicCoverage <list>, dataSources <list>, …
# ℹ Use `print(n = ...)` to see more rows
```
…
